{
	"additionalNodes": [],
	"additionalParameters": {
		"root": {
			"height": 170,
			"width": 216
		}
	},
	"inputs": [],
	"outputs": [ {
		"name": "spy"
	}, {
		"name": "seer"
	}, {
		"name": "atlases"
	}, {
		"name": "deadbox"
	} ],
	"properties": {
		"0M78xSdsiu3y1BRPKKs342hPI288dfr2": {
			"height": 54,
			"title": "failure",
			"width": 131,
			"x": 864,
			"y": 175
		},
		"0MII8tzYhfQOsQnZ1yM2JIHfO2njYdJ9": {
			"height": 90,
			"title": "luaCondition",
			"width": 194,
			"x": 604,
			"y": 91
		},
		"1M8PKB1XIQf21z6BDQYVPVe5c2L4xa3Z": {
			"height": 54,
			"title": "failure",
			"width": 131,
			"x": 757,
			"y": -66
		},
		"3ODWZu1d9wY1VumFI3UbF5ue7x2MLR7c": {
			"height": 195,
			"title": "reference",
			"width": 238,
			"x": 1076,
			"y": -421
		},
		"5sUCre9FfU6rExkhbK8jmd11CNriVd0D": {
			"height": 90,
			"title": "luaCondition",
			"width": 194,
			"x": 541,
			"y": 421
		},
		"75PlkgRasKfEyD3a1af3S1gpaBYOYrJP": {
			"height": 54,
			"title": "failure",
			"width": 131,
			"x": 1037,
			"y": 642
		},
		"8BaBzgzeLiPM7MocZ8PN5kS8VcSJP07g": {
			"height": 195,
			"title": "reference",
			"width": 238,
			"x": 1034,
			"y": 321
		},
		"9IPqpMm9BZuXgSVdfteU7YMfv0iWxoyp": {
			"height": 90,
			"title": "luaCondition",
			"width": 194,
			"x": 505,
			"y": -147
		},
		"9goOXwtjCWtZClC3l2RelMwx7OXPGVPP": {
			"height": 54,
			"title": "success",
			"width": 132,
			"x": 754,
			"y": 978
		},
		"A1SZAJNBj1lCJ0hQx34UBDjcrLNHDq0P": {
			"height": 60,
			"title": "sequence",
			"width": 143,
			"x": 780,
			"y": 881
		},
		"CR2dX7nahaZ7nYOxF2n8tm9xdB7pZHci": {
			"height": 92,
			"title": "store",
			"width": 131,
			"x": 1086,
			"y": -223
		},
		"CYao9n9XigibL8sGwux1DgOLNnNR4SDO": {
			"height": 54,
			"title": "failure",
			"width": 131,
			"x": 1067,
			"y": 249
		},
		"CsaVEZBT4sZx80sn1NlAlEjVP0T1q1Zs": {
			"height": 70,
			"title": "selector",
			"width": 131,
			"x": 313,
			"y": -14
		},
		"Jfx48LhKgiQFpd5TLg8zXLTPACfSYzc9": {
			"height": 195,
			"title": "reference",
			"width": 238,
			"x": 1005,
			"y": 743
		},
		"LLe1TvOrAuVmC8lPurwQzK8tCgZXVU9x": {
			"height": 92,
			"title": "store",
			"width": 131,
			"x": 1032,
			"y": 528
		},
		"MZXPLpen52OBwNIEbJUKUBRRYnY9aqjw": {
			"height": 92,
			"title": "store",
			"width": 131,
			"x": 1003,
			"y": 950
		},
		"RAtfhtc9tXw3ndoa4vOvL2p0x67aOuSj": {
			"height": 92,
			"title": "store",
			"width": 131,
			"x": 1057,
			"y": 138
		},
		"X1VY4OwWopsCKsVvXaKiP2b9svqVEcxJ": {
			"height": 60,
			"title": "sequence",
			"width": 143,
			"x": 749,
			"y": -217
		},
		"aDEOKeUUQpHaqjbUc0TQSvVTA4YETO16": {
			"height": 54,
			"title": "failure",
			"width": 131,
			"x": 787,
			"y": 619
		},
		"ctjmqbZ3CHCiKdTxfFJpKfNCkf8NvJiD": {
			"height": 90,
			"title": "luaCondition",
			"width": 194,
			"x": 512,
			"y": 843
		},
		"l6XBupv9bwIral5BCYCcx3kZXQGs4d3P": {
			"height": 195,
			"title": "reference",
			"width": 238,
			"x": 1037,
			"y": -69
		},
		"lLUo1ZMXsvduduu0ke0h0McFCqiER2rS": {
			"height": 60,
			"title": "sequence",
			"width": 143,
			"x": 849,
			"y": 112
		},
		"mykjWgkpGKdEUGl4mBpbphZhzn29bry2": {
			"height": 54,
			"title": "failure",
			"width": 131,
			"x": 1084,
			"y": -129
		},
		"oLk5ydAjpg6rQOR6Mjqksr3I9zCx0TZ7": {
			"height": 60,
			"title": "sequence",
			"width": 143,
			"x": 809,
			"y": 459
		}
	},
	"roles": [ {
		"categories": [],
		"name": "Role 0"
	} ],
	"root": {
		"children": [ {
			"children": [ {
				"children": [ {
					"children": [],
					"id": "3ODWZu1d9wY1VumFI3UbF5ue7x2MLR7c",
					"nodeType": "reference",
					"parameters": [ {
						"name": "behaviourName",
						"value": "ahry.getFreeUnits"
					} ],
					"referenceInputs": [ {
						"name": "unitName",
						"value": "\"armspy\""
					}, {
						"name": "unitCount",
						"value": "1"
					}, {
						"name": "behaviousName",
						"value": "\"ambush\""
					} ],
					"referenceOutputs": [ {
						"name": "unitIDs",
						"value": "spy"
					} ]
				}, {
					"children": [],
					"id": "CR2dX7nahaZ7nYOxF2n8tm9xdB7pZHci",
					"nodeType": "luaCommand",
					"parameters": [ {
						"name": "var",
						"value": "step"
					}, {
						"name": "value",
						"value": "1"
					}, {
						"name": "scriptName",
						"value": "store"
					} ],
					"scriptName": "store"
				}, {
					"children": [],
					"id": "mykjWgkpGKdEUGl4mBpbphZhzn29bry2",
					"nodeType": "failure",
					"parameters": []
				} ],
				"id": "X1VY4OwWopsCKsVvXaKiP2b9svqVEcxJ",
				"nodeType": "sequence",
				"parameters": []
			}, {
				"children": [],
				"id": "1M8PKB1XIQf21z6BDQYVPVe5c2L4xa3Z",
				"nodeType": "failure",
				"parameters": []
			} ],
			"id": "9IPqpMm9BZuXgSVdfteU7YMfv0iWxoyp",
			"nodeType": "luaCondition",
			"parameters": [ {
				"name": "expression",
				"value": "not step or step == 0"
			}, {
				"name": "repeat",
				"value": "true"
			} ]
		}, {
			"children": [ {
				"children": [ {
					"children": [],
					"id": "l6XBupv9bwIral5BCYCcx3kZXQGs4d3P",
					"nodeType": "reference",
					"parameters": [ {
						"name": "behaviourName",
						"value": "ahry.getFreeUnits"
					} ],
					"referenceInputs": [ {
						"name": "unitName",
						"value": "'armseer'"
					}, {
						"name": "unitCount",
						"value": "1"
					}, {
						"name": "behaviousName",
						"value": "\"ambush\""
					} ],
					"referenceOutputs": [ {
						"name": "unitIDs",
						"value": "seer"
					} ]
				}, {
					"children": [],
					"id": "RAtfhtc9tXw3ndoa4vOvL2p0x67aOuSj",
					"nodeType": "luaCommand",
					"parameters": [ {
						"name": "var",
						"value": "step"
					}, {
						"name": "value",
						"value": "2"
					}, {
						"name": "scriptName",
						"value": "store"
					} ],
					"scriptName": "store"
				}, {
					"children": [],
					"id": "CYao9n9XigibL8sGwux1DgOLNnNR4SDO",
					"nodeType": "failure",
					"parameters": []
				} ],
				"id": "lLUo1ZMXsvduduu0ke0h0McFCqiER2rS",
				"nodeType": "sequence",
				"parameters": []
			}, {
				"children": [],
				"id": "0M78xSdsiu3y1BRPKKs342hPI288dfr2",
				"nodeType": "failure",
				"parameters": []
			} ],
			"id": "0MII8tzYhfQOsQnZ1yM2JIHfO2njYdJ9",
			"nodeType": "luaCondition",
			"parameters": [ {
				"name": "expression",
				"value": "step == 1"
			}, {
				"name": "repeat",
				"value": "true"
			} ]
		}, {
			"children": [ {
				"children": [ {
					"children": [],
					"id": "8BaBzgzeLiPM7MocZ8PN5kS8VcSJP07g",
					"nodeType": "reference",
					"parameters": [ {
						"name": "behaviourName",
						"value": "ahry.getFreeUnits"
					} ],
					"referenceInputs": [ {
						"name": "unitName",
						"value": "\"armatlas\""
					}, {
						"name": "unitCount",
						"value": "3"
					}, {
						"name": "behaviousName",
						"value": "\"ambush\""
					} ],
					"referenceOutputs": [ {
						"name": "unitIDs",
						"value": "atlases"
					} ]
				}, {
					"children": [],
					"id": "LLe1TvOrAuVmC8lPurwQzK8tCgZXVU9x",
					"nodeType": "luaCommand",
					"parameters": [ {
						"name": "var",
						"value": "step"
					}, {
						"name": "value",
						"value": "3"
					}, {
						"name": "scriptName",
						"value": "store"
					} ],
					"scriptName": "store"
				}, {
					"children": [],
					"id": "75PlkgRasKfEyD3a1af3S1gpaBYOYrJP",
					"nodeType": "failure",
					"parameters": []
				} ],
				"id": "oLk5ydAjpg6rQOR6Mjqksr3I9zCx0TZ7",
				"nodeType": "sequence",
				"parameters": []
			}, {
				"children": [],
				"id": "aDEOKeUUQpHaqjbUc0TQSvVTA4YETO16",
				"nodeType": "failure",
				"parameters": []
			} ],
			"id": "5sUCre9FfU6rExkhbK8jmd11CNriVd0D",
			"nodeType": "luaCondition",
			"parameters": [ {
				"name": "expression",
				"value": "step == 2"
			}, {
				"name": "repeat",
				"value": "true"
			} ]
		}, {
			"children": [ {
				"children": [ {
					"children": [],
					"id": "Jfx48LhKgiQFpd5TLg8zXLTPACfSYzc9",
					"nodeType": "reference",
					"parameters": [ {
						"name": "behaviourName",
						"value": "ahry.getFreeUnits"
					} ],
					"referenceInputs": [ {
						"name": "unitName",
						"value": "\"armbox\""
					}, {
						"name": "unitCount",
						"value": "1"
					}, {
						"name": "behaviousName",
						"value": "\"ambush\""
					} ],
					"referenceOutputs": [ {
						"name": "unitIDs",
						"value": "deadbox"
					} ]
				}, {
					"children": [],
					"id": "MZXPLpen52OBwNIEbJUKUBRRYnY9aqjw",
					"nodeType": "luaCommand",
					"parameters": [ {
						"name": "var",
						"value": "step"
					}, {
						"name": "value",
						"value": "4"
					}, {
						"name": "scriptName",
						"value": "store"
					} ],
					"scriptName": "store"
				} ],
				"id": "A1SZAJNBj1lCJ0hQx34UBDjcrLNHDq0P",
				"nodeType": "sequence",
				"parameters": []
			}, {
				"children": [],
				"id": "9goOXwtjCWtZClC3l2RelMwx7OXPGVPP",
				"nodeType": "success",
				"parameters": []
			} ],
			"id": "ctjmqbZ3CHCiKdTxfFJpKfNCkf8NvJiD",
			"nodeType": "luaCondition",
			"parameters": [ {
				"name": "expression",
				"value": "step == 3"
			}, {
				"name": "repeat",
				"value": "true"
			} ]
		} ],
		"id": "CsaVEZBT4sZx80sn1NlAlEjVP0T1q1Zs",
		"nodeType": "selector",
		"parameters": [ {
			"name": "active",
			"value": "true"
		} ]
	}
}