{
	"additionalNodes": [],
	"additionalParameters": {
		"root": {
			"height": 108,
			"width": 216
		}
	},
	"inputs": [ {
		"command": "Variable",
		"name": "line"
	} ],
	"outputs": [],
	"properties": {
		"8b8YOq3ByIvPzgxQzSP4CDyPvzN3ps74": {
			"height": 70,
			"title": "parallel",
			"width": 202,
			"x": 721,
			"y": 881
		},
		"IZCCxydDTQx2ynbefuQnfX94EWzQP3Dp": {
			"height": 60,
			"title": "repeat",
			"width": 131,
			"x": 1034,
			"y": 486
		},
		"NhG2dwLVcmODoGXtRvS3IrL74wvllPCK": {
			"height": 60,
			"title": "sequence",
			"width": 143,
			"x": 509,
			"y": 367
		},
		"PG5myVjm7SASepP2pJFXWG04r7vU7laz": {
			"height": 151,
			"title": "reference",
			"width": 251,
			"x": 1090,
			"y": 252
		},
		"XoW30Tv489zkgu8iT783VAKei26d37cp": {
			"height": 60,
			"title": "repeat",
			"width": 131,
			"x": 1019,
			"y": 629
		},
		"YAyhNQgHAct4b2KMIELIlynApPKncfWW": {
			"height": 194,
			"title": "reference",
			"width": 274,
			"x": 651,
			"y": 73
		},
		"cFI14BE7utrEGen3Pb40x70d3xnCoBGV": {
			"height": 151,
			"title": "reference",
			"width": 201,
			"x": 1222,
			"y": 597
		},
		"eh6ECo3Cg2LmOKOhiXzx42qYMGBvAcyj": {
			"height": 151,
			"title": "reference",
			"width": 211,
			"x": 1215,
			"y": 454
		},
		"iOGAgyN2VEbhaJqeF2GC7dYIg6iIJGLE": {
			"height": 130,
			"title": "reference",
			"width": 251,
			"x": 1055,
			"y": 786
		},
		"pbPrgJ81RTyjaG7Oy1kuL7Jxo32VVR2F": {
			"height": 194,
			"title": "reference",
			"width": 274,
			"x": 657,
			"y": -158
		},
		"tgh5GAZcBVJptzegNDAyQiTMRLak3ULB": {
			"height": 130,
			"title": "reference",
			"width": 251,
			"x": 1067,
			"y": 950
		},
		"uaUApm5ZSAgcWpx9LT6FeYbaRRbeCAQh": {
			"height": 60,
			"title": "sequence",
			"width": 143,
			"x": 304,
			"y": 19
		},
		"weKn3AKkWJRj2t6GnWVXpn7BydH2DyKR": {
			"height": 70,
			"title": "parallel",
			"width": 202,
			"x": 760,
			"y": 357
		}
	},
	"roles": [ {
		"categories": [],
		"name": "Role 0"
	} ],
	"root": {
		"children": [ {
			"children": [],
			"id": "pbPrgJ81RTyjaG7Oy1kuL7Jxo32VVR2F",
			"nodeType": "reference",
			"parameters": [ {
				"name": "behaviourName",
				"value": "ahry.getFreeUnits"
			} ],
			"referenceInputs": [ {
				"name": "unitName",
				"value": "\"armfark\""
			}, {
				"name": "unitCount",
				"value": "5"
			}, {
				"name": "behaviousName",
				"value": "line .. \"pushLine\""
			} ],
			"referenceOutputs": [ {
				"name": "unitIDs",
				"value": "farks"
			} ]
		}, {
			"children": [],
			"id": "YAyhNQgHAct4b2KMIELIlynApPKncfWW",
			"nodeType": "reference",
			"parameters": [ {
				"name": "behaviourName",
				"value": "ahry.getFreeUnits"
			} ],
			"referenceInputs": [ {
				"name": "unitName",
				"value": "\"armmav\""
			}, {
				"name": "unitCount",
				"value": "8"
			}, {
				"name": "behaviousName",
				"value": "line .. \"pushLine\""
			} ],
			"referenceOutputs": [ {
				"name": "unitIDs",
				"value": "mavs"
			} ]
		}, {
			"children": [ {
				"children": [ {
					"children": [],
					"id": "PG5myVjm7SASepP2pJFXWG04r7vU7laz",
					"nodeType": "reference",
					"parameters": [ {
						"name": "behaviourName",
						"value": "ahry.pushLineAttackingPart"
					} ],
					"referenceInputs": [ {
						"name": "mavs",
						"value": "mavs"
					}, {
						"name": "line",
						"value": "line"
					} ],
					"referenceOutputs": []
				}, {
					"children": [ {
						"children": [],
						"id": "eh6ECo3Cg2LmOKOhiXzx42qYMGBvAcyj",
						"nodeType": "reference",
						"parameters": [ {
							"name": "behaviourName",
							"value": "ahry.healUnits"
						} ],
						"referenceInputs": [ {
							"name": "unitsToHeal",
							"value": "mavs"
						}, {
							"name": "farks",
							"value": "farks"
						} ],
						"referenceOutputs": []
					} ],
					"id": "IZCCxydDTQx2ynbefuQnfX94EWzQP3Dp",
					"nodeType": "repeat",
					"parameters": []
				}, {
					"children": [ {
						"children": [],
						"id": "cFI14BE7utrEGen3Pb40x70d3xnCoBGV",
						"nodeType": "reference",
						"parameters": [ {
							"name": "behaviourName",
							"value": "ahry.upgradeLine"
						} ],
						"referenceInputs": [ {
							"name": "line",
							"value": "\"Good\"..line"
						} ],
						"referenceOutputs": []
					} ],
					"id": "XoW30Tv489zkgu8iT783VAKei26d37cp",
					"nodeType": "repeat",
					"parameters": []
				} ],
				"id": "weKn3AKkWJRj2t6GnWVXpn7BydH2DyKR",
				"nodeType": "parallel",
				"parameters": [ {
					"name": "mode",
					"value": "any-success"
				} ]
			}, {
				"children": [ {
					"children": [],
					"id": "iOGAgyN2VEbhaJqeF2GC7dYIg6iIJGLE",
					"nodeType": "reference",
					"parameters": [ {
						"name": "behaviourName",
						"value": "ahry.returnToBaseAndFree"
					} ],
					"referenceInputs": [ {
						"name": "unitsToMove",
						"value": "mavs"
					} ],
					"referenceOutputs": []
				}, {
					"children": [],
					"id": "tgh5GAZcBVJptzegNDAyQiTMRLak3ULB",
					"nodeType": "reference",
					"parameters": [ {
						"name": "behaviourName",
						"value": "ahry.returnToBaseAndFree"
					} ],
					"referenceInputs": [ {
						"name": "unitsToMove",
						"value": "farks"
					} ],
					"referenceOutputs": []
				} ],
				"id": "8b8YOq3ByIvPzgxQzSP4CDyPvzN3ps74",
				"nodeType": "parallel",
				"parameters": [ {
					"name": "mode",
					"value": "all-success"
				} ]
			} ],
			"id": "NhG2dwLVcmODoGXtRvS3IrL74wvllPCK",
			"nodeType": "sequence",
			"parameters": []
		} ],
		"id": "uaUApm5ZSAgcWpx9LT6FeYbaRRbeCAQh",
		"nodeType": "sequence",
		"parameters": []
	}
}