{
	"additionalNodes": [],
	"additionalParameters": {
		"root": {
			"height": 108,
			"width": 234
		}
	},
	"inputs": [ {
		"command": "BETS_UNIT",
		"name": "unitsToMove"
	} ],
	"outputs": [],
	"properties": {
		"DEhy3sjH3Nm4VfGsn4Vn1hJNt60gXAC9": {
			"height": 60,
			"title": "sequence",
			"width": 143,
			"x": 322,
			"y": 0
		},
		"OkLnsJ9jz2cOTTLipMlLitwtfUKLHUUq": {
			"height": 130,
			"title": "ahry.move_units",
			"width": 381,
			"x": 508,
			"y": -78
		},
		"QGcGbmHT05xI66oGVpXYyF1xFyVNiwRK": {
			"height": 94,
			"title": "store",
			"width": 271,
			"x": 517,
			"y": 66
		},
		"enVEKR6J7PIFpia9wqZVmt53j07Vo2eZ": {
			"height": 94,
			"title": "store",
			"width": 310,
			"x": 517,
			"y": -182
		}
	},
	"roles": [ {
		"categories": [],
		"name": "Role 0"
	} ],
	"root": {
		"children": [ {
			"children": [],
			"id": "enVEKR6J7PIFpia9wqZVmt53j07Vo2eZ",
			"nodeType": "luaCommand",
			"parameters": [ {
				"name": "var",
				"value": "unitsToMove"
			}, {
				"name": "value",
				"value": "ahry.filter_units_alive(unitsToMove)"
			}, {
				"name": "scriptName",
				"value": "store"
			} ],
			"scriptName": "store"
		}, {
			"children": [],
			"id": "OkLnsJ9jz2cOTTLipMlLitwtfUKLHUUq",
			"nodeType": "luaCommand",
			"parameters": [ {
				"name": "units_to_move",
				"value": "unitsToMove"
			}, {
				"name": "pos",
				"value": "ahry.get_stronghold_in_line(\"Middle\", 1).position"
			}, {
				"name": "close_distance",
				"value": "1000"
			}, {
				"name": "fight",
				"value": "false"
			}, {
				"name": "scriptName",
				"value": "ahry.move_units"
			} ],
			"scriptName": "ahry.move_units"
		}, {
			"children": [],
			"id": "QGcGbmHT05xI66oGVpXYyF1xFyVNiwRK",
			"nodeType": "luaCommand",
			"parameters": [ {
				"name": "var",
				"value": "x"
			}, {
				"name": "value",
				"value": "ahry.free_units(unitsToMove)"
			}, {
				"name": "scriptName",
				"value": "store"
			} ],
			"scriptName": "store"
		} ],
		"id": "DEhy3sjH3Nm4VfGsn4Vn1hJNt60gXAC9",
		"nodeType": "sequence",
		"parameters": []
	}
}