{
	"additionalNodes": [],
	"additionalParameters": {
		"root": {
			"height": 190,
			"width": 270
		}
	},
	"inputs": [ {
		"command": "BETS_POSITION",
		"name": "start"
	}, {
		"command": "BETS_POSITION",
		"name": "finish"
	}, {
		"command": "Variable",
		"name": "fly_height"
	}, {
		"command": "Variable",
		"name": "start_from_scrath"
	} ],
	"outputs": [ {
		"name": "path_data"
	} ],
	"properties": {
		"BaqoLRriHDNBlX0I8e3vvBIp9ds0aQ5Y": {
			"height": 90,
			"title": "luaCondition",
			"width": 209,
			"x": 1015,
			"y": -80
		},
		"GBor0HHlaNSlxom0zlmKi0G4SuZr1HTA": {
			"height": 54,
			"title": "failure",
			"width": 131,
			"x": 1354,
			"y": -38
		},
		"M84iXa3evOAibB6CUFo05Dh8ReFsR13P": {
			"height": 94,
			"title": "store",
			"width": 518,
			"x": 1235,
			"y": 71
		},
		"MhAnYmzpn95MDzWRQvtS1pCSQZa7hKZr": {
			"height": 54,
			"title": "sequence",
			"width": 143,
			"x": 345,
			"y": -25
		},
		"PGSfp5ZIS5XDD7SMAEwJTMjTLcGHorlE": {
			"height": 72,
			"title": "waitUntil",
			"width": 150,
			"x": 801,
			"y": 5
		},
		"SuraaneeTgpRzBjmzBKq4BBlOWHA9SH9": {
			"height": 92,
			"title": "store",
			"width": 203,
			"x": 795,
			"y": -130
		},
		"U3SWtiql1kOnJCYtcn5yNokVOZKEEl6l": {
			"height": 60,
			"title": "repeat",
			"width": 131,
			"x": 1045,
			"y": 99
		},
		"VZ87aRfi7bzM9snfVLHVxnCGmoyqTnjU": {
			"height": 90,
			"title": "luaCondition",
			"width": 239,
			"x": 530,
			"y": -51
		},
		"lcnm3YYZpnq8V26ErqRrdnQL1vdCedjD": {
			"height": 90,
			"title": "luaCondition",
			"width": 426,
			"x": 546,
			"y": 90
		},
		"vJmsI7MISMzc6kEDrhTjJEkN0OOQaEoG": {
			"height": 54,
			"title": "success",
			"width": 132,
			"x": 1349,
			"y": -127
		}
	},
	"roles": [ {
		"categories": [],
		"name": "Role 0"
	} ],
	"root": {
		"children": [ {
			"children": [ {
				"children": [],
				"id": "SuraaneeTgpRzBjmzBKq4BBlOWHA9SH9",
				"nodeType": "luaCommand",
				"parameters": [ {
					"name": "var",
					"value": "path_data"
				}, {
					"name": "value",
					"value": "nil"
				}, {
					"name": "scriptName",
					"value": "store"
				} ],
				"scriptName": "store"
			}, {
				"children": [],
				"id": "PGSfp5ZIS5XDD7SMAEwJTMjTLcGHorlE",
				"nodeType": "luaCommand",
				"parameters": [ {
					"name": "condition",
					"value": "true"
				}, {
					"name": "scriptName",
					"value": "waitUntil"
				} ],
				"scriptName": "waitUntil"
			} ],
			"id": "VZ87aRfi7bzM9snfVLHVxnCGmoyqTnjU",
			"nodeType": "luaCondition",
			"parameters": [ {
				"name": "expression",
				"value": "start_from_scrath"
			}, {
				"name": "repeat",
				"value": "true"
			} ]
		}, {
			"children": [ {
				"children": [ {
					"children": [],
					"id": "vJmsI7MISMzc6kEDrhTjJEkN0OOQaEoG",
					"nodeType": "success",
					"parameters": []
				}, {
					"children": [],
					"id": "GBor0HHlaNSlxom0zlmKi0G4SuZr1HTA",
					"nodeType": "failure",
					"parameters": []
				} ],
				"id": "BaqoLRriHDNBlX0I8e3vvBIp9ds0aQ5Y",
				"nodeType": "luaCondition",
				"parameters": [ {
					"name": "expression",
					"value": "path_data.state == \"done\""
				}, {
					"name": "repeat",
					"value": "true"
				} ]
			}, {
				"children": [ {
					"children": [],
					"id": "M84iXa3evOAibB6CUFo05Dh8ReFsR13P",
					"nodeType": "luaCommand",
					"parameters": [ {
						"name": "var",
						"value": "path_data"
					}, {
						"name": "value",
						"value": "ahry.safe_path_find(start, finish, fly_height or 0, path_data)"
					}, {
						"name": "scriptName",
						"value": "store"
					} ],
					"scriptName": "store"
				} ],
				"id": "U3SWtiql1kOnJCYtcn5yNokVOZKEEl6l",
				"nodeType": "repeat",
				"parameters": []
			} ],
			"id": "lcnm3YYZpnq8V26ErqRrdnQL1vdCedjD",
			"nodeType": "luaCondition",
			"parameters": [ {
				"name": "expression",
				"value": "path_data and path_data.state"
			}, {
				"name": "repeat",
				"value": "true"
			} ]
		} ],
		"id": "MhAnYmzpn95MDzWRQvtS1pCSQZa7hKZr",
		"nodeType": "sequence",
		"parameters": []
	}
}