{
	"additionalNodes": [],
	"additionalParameters": {
		"root": {
			"height": 88,
			"width": 180
		}
	},
	"inputs": [],
	"outputs": [],
	"properties": {
		"JDfASSCC4wI0b3eUPYacbUIBChmWo0OY": {
			"height": 130,
			"title": "reference",
			"width": 210,
			"x": 324,
			"y": -32
		}
	},
	"roles": [ {
		"categories": [],
		"name": "Role 0"
	} ],
	"root": {
		"children": [],
		"id": "JDfASSCC4wI0b3eUPYacbUIBChmWo0OY",
		"nodeType": "reference",
		"parameters": [ {
			"name": "behaviourName",
			"value": "ahry.goThroughtLine"
		} ],
		"referenceInputs": [ {
			"name": "line",
			"value": "\"Middle\""
		} ],
		"referenceOutputs": []
	}
}